{
  "uuid": "480f8e86-1447-496e-9562-d35e82159472",
  "lastMigration": 19,
  "name": "Mpago",
  "endpointPrefix": "",
  "latency": 0,
  "port": 3003,
  "hostname": "0.0.0.0",
  "routes": [
    {
      "uuid": "f8cdae5d-7599-4725-a358-b5794e1e0861",
      "documentation": "",
      "method": "post",
      "endpoint": "instore/orders/qr/seller/collectors/95762750/pos/SUC001POS001/qrs",
      "responses": [
        {
          "uuid": "c4385002-dcaf-4021-b2bc-ffd5da4ce152",
          "body": "{\n  \"qr_data\": \"00020101021243650016COM.MERCADOLIBRE02013063638f1192a-5fd1-4180-a180-8bcae3556bc35204000053039865802BR5925IZABEL AAAA DE MELO6007BARUERI62070503***63040B6D\",\n  \"in_store_order_id\": \"{{guid}}\"\n}",
          "latency": 0,
          "statusCode": 200,
          "label": "",
          "headers": [],
          "filePath": "",
          "sendFileAsBody": false,
          "rules": [],
          "rulesOperator": "OR",
          "disableTemplating": false,
          "fallbackTo404": false
        }
      ],
      "enabled": true,
      "randomResponse": false,
      "sequentialResponse": false
    }
  ],
  "proxyMode": false,
  "proxyHost": "",
  "proxyRemovePrefix": false,
  "tlsOptions": {
    "enabled": false,
    "type": "CERT",
    "pfxPath": "",
    "certPath": "",
    "keyPath": "",
    "caPath": "",
    "passphrase": ""
  },
  "cors": true,
  "headers": [
    {
      "key": "Content-Type",
      "value": "application/json"
    }
  ],
  "proxyReqHeaders": [
    {
      "key": "",
      "value": ""
    }
  ],
  "proxyResHeaders": [
    {
      "key": "",
      "value": ""
    }
  ]
}